…
    Warning: ORDER BY is ignored in subqueries without LIMIT
    ℹ Do you need to move arrange() later in the pipeline or use window_order() instead?

``` r
lax_jfk_0926
```

    # A tibble: 60 × 3
       carrier flight flight_no
       <chr>    <int> <chr>    
     1 UA         441 UA441    
     2 B6          24 B624     
     3 VX         399 VX399    
     4 DL        1908 DL1908   
     5 B6          23 B623     
     6 AA         118 AA118    
     7 DL         476 DL476    
     8 VX         404 VX404    
     9 AA          34 AA34     
    10 AA          33 AA33     
    # ℹ 50 more rows
…
avg_abs_by_study
```

    # A tibble: 44 × 3
       Identifier    n_measurements avg_abs
       <chr>                  <int>   <dbl>
     1 Keefe_2003            106384   0.549
     2 Sun_2023              598130   0.529
     3 Hunter_2016            49005   0.502
     4 Keefe_2017             10596   0.451
     5 Merchant_2010         618307   0.432
     6 Sanford_2014          605285   0.430
     7 Merchant_2020         895435   0.428
     8 Downing_2022         1798603   0.424
     9 Rosowski_2012         826637   0.421
    10 Nakajima_2012         636986   0.421
    # ℹ 34 more rows
…
